%YAML 1.1
%TAG !u! tag:unity3d.com,2011:
--- !u!1 &6920252740136756677
GameObject:
  m_ObjectHideFlags: 0
  m_CorrespondingSourceObject: {fileID: 0}
  m_PrefabInstance: {fileID: 0}
  m_PrefabAsset: {fileID: 0}
  serializedVersion: 6
  m_Component:
  - component: {fileID: 322189410645635044}
  - component: {fileID: 8548291274124368579}
  m_Layer: 0
  m_Name: ObjectPoolManager
  m_TagString: Untagged
  m_Icon: {fileID: 0}
  m_NavMeshLayer: 0
  m_StaticEditorFlags: 0
  m_IsActive: 1
--- !u!4 &322189410645635044
Transform:
  m_ObjectHideFlags: 0
  m_CorrespondingSourceObject: {fileID: 0}
  m_PrefabInstance: {fileID: 0}
  m_PrefabAsset: {fileID: 0}
  m_GameObject: {fileID: 6920252740136756677}
  m_LocalRotation: {x: 0, y: 0, z: 0, w: 1}
  m_LocalPosition: {x: 0, y: 0, z: 0}
  m_LocalScale: {x: 1, y: 1, z: 1}
  m_Children: []
  m_Father: {fileID: 0}
  m_RootOrder: 0
  m_LocalEulerAnglesHint: {x: 0, y: 0, z: 0}
--- !u!114 &8548291274124368579
MonoBehaviour:
  m_ObjectHideFlags: 0
  m_CorrespondingSourceObject: {fileID: 0}
  m_PrefabInstance: {fileID: 0}
  m_PrefabAsset: {fileID: 0}
  m_GameObject: {fileID: 6920252740136756677}
  m_Enabled: 1
  m_EditorHideFlags: 0
  m_Script: {fileID: 11500000, guid: 3f0993cca3de942c3946de9b035397d1, type: 3}
  m_Name: 
  m_EditorClassIdentifier: 
  _prefabPools:
  - {fileID: 5500992706083449049, guid: 6726ffc7baab1433eac41de946994b0a, type: 3}
  - {fileID: 5500992706083449049, guid: d80d871cfd48c40218691310d9c35544, type: 3}
  - {fileID: 5500992706083449049, guid: 38040ad4d89bd4b47ae907ea790120b4, type: 3}
  - {fileID: 5500992706083449049, guid: 9a8243aa1152d4ee9a7599df558bba11, type: 3}
  - {fileID: 5500992706083449049, guid: d69b35988fa9c4f0a8d134407674d5f4, type: 3}
